Zoogeographic Region,Correlation,Mean slope (Min. - Max.; SD),% of models with P < 0.05,Mean Spearman rho
Nearctic,1,0.989 (0.502 - 1.626; 0.199),60.6,0.7
Nearctic,2,1.188 (0.729 - 1.74; 0.147),95.4,0.62
Nearctic,3,3.983 (1.807 - 6.105; 0.719),88,0.72
Nearctic,4,5.176 (2.727 - 7.85; 0.853),90.5,0.75
Palearctic,1,1.237 (0.921 - 2.31; 0.125),81,0.79
Palearctic,2,0.661 (0.352 - 1.249; 0.153),80.1,0.61
Palearctic,3,3.069 (2.12 - 4.32; 0.365),75.3,0.78
Palearctic,4,3.739 (2.573 - 5.902; 0.525),73.4,0.78
Oriental,1,1.042 (0.831 - 1.347; 0.076),100,0.88
Oriental,2,1.448 (1.085 - 1.754; 0.106),100,0.74
Oriental,3,4.779 (3.873 - 5.669; 0.311),100,0.88
Oriental,4,6.247 (4.883 - 7.471; 0.408),100,0.86
Neotropical,1,3.319 (2.411 - 4.868; 0.408),67.5,0.94
Neotropical,2,4.34 (3.097 - 5.692; 0.394),75.5,0.88
Neotropical,3,7.067 (4.949 - 10.959; 0.955),66.9,0.9
Neotropical,4,11.344 (8.893 - 16.024; 1.168),66.8,0.92
Afrotropical,1,1.624 (0.923 - 3.456; 0.428),71.9,0.74
Afrotropical,2,0.851 (0.387 - 1.668; 0.186),76.3,0.77
Afrotropical,3,8.628 (4.933 - 16.131; 1.889),71.6,0.84
Afrotropical,4,9.556 (5.595 - 17.164; 1.991),70.4,0.85
Australasia,1,1.896 (-0.073 - 4.378; 0.647),81.2,-0.33
Australasia,2,2.423 (-0.627 - 5.125; 0.908),83.2,-0.1
Australasia,3,3.92 (-1.163 - 12.277; 1.723),38.4,-0.35
Australasia,4,6.285 (0.935 - 14.304; 1.83),69,-0.31
